[
  {
    "login": "krivda",
    "name": "Кривда",
    "pwdHash": "61be55a8e2f6b4e172338bddf184d6dbee29c98853e0a0485ecee7f27b9af0b4"
  },
  {
    "name": "Молидеус",
    "login": "molydeus-t",
    "pwdHash": "f98204ba6963009734f0398a80f8e44f9d3ef74ebb9c49e5d4f000bd1c102d29"
  }
]
